{
  "annotations": {
    "list": [
      {
        "builtIn": 1,
        "datasource": "-- Grafana --",
        "enable": true,
        "hide": true,
        "iconColor": "rgba(0, 211, 255, 1)",
        "name": "Annotations & Alerts",
        "type": "dashboard"
      }
    ]
  },
  "editable": true,
  "gnetId": null,
  "graphTooltip": 0,
  "id": 1,
  "links": [],
  "panels": [
    {
      "cacheTimeout": null,
      "columns": [],
      "datasource": "MySQL",
      "fontSize": "100%",
      "gridPos": {
        "h": 23,
        "w": 5,
        "x": 0,
        "y": 0
      },
      "id": 2,
      "interval": "",
      "links": [],
      "options": {},
      "pageSize": null,
      "pluginVersion": "6.4.3",
      "showHeader": true,
      "sort": {
        "col": 1,
        "desc": true
      },
      "styles": [
        {
          "alias": "Time",
          "dateFormat": "YYYY-MM-DD HH:mm:ss",
          "pattern": "Time",
          "type": "date"
        },
        {
          "alias": "",
          "colorMode": null,
          "colors": [
            "rgba(245, 54, 54, 0.9)",
            "rgba(237, 129, 40, 0.89)",
            "rgba(50, 172, 45, 0.97)"
          ],
          "decimals": 2,
          "pattern": "/.*/",
          "thresholds": [],
          "type": "number",
          "unit": "short"
        }
      ],
      "targets": [
        {
          "format": "table",
          "group": [],
          "metricColumn": "none",
          "rawQuery": true,
          "rawSql": "SELECT CONCAT(nombre, ' ', apellidos) as nombre, total FROM minutos WHERE equipo = 'Masculino';",
          "refId": "A",
          "select": [
            [
              {
                "params": [
                  "reserva"
                ],
                "type": "column"
              }
            ]
          ],
          "table": "minutos",
          "timeColumn": "total",
          "timeColumnType": "int",
          "where": [
            {
              "name": "$__unixEpochFilter",
              "params": [],
              "type": "macro"
            }
          ]
        }
      ],
      "timeFrom": null,
      "timeShift": null,
      "title": "Minutos jugados Masculino",
      "transform": "table",
      "type": "table"
    },
    {
      "cacheTimeout": null,
      "columns": [],
      "datasource": "MySQL",
      "fontSize": "100%",
      "gridPos": {
        "h": 23,
        "w": 6,
        "x": 5,
        "y": 0
      },
      "id": 3,
      "interval": "",
      "links": [],
      "options": {},
      "pageSize": null,
      "pluginVersion": "6.4.3",
      "showHeader": true,
      "sort": {
        "col": 1,
        "desc": true
      },
      "styles": [
        {
          "alias": "Time",
          "dateFormat": "YYYY-MM-DD HH:mm:ss",
          "link": false,
          "pattern": "Time",
          "type": "date"
        },
        {
          "alias": "",
          "colorMode": null,
          "colors": [
            "rgba(245, 54, 54, 0.9)",
            "rgba(237, 129, 40, 0.89)",
            "rgba(50, 172, 45, 0.97)"
          ],
          "dateFormat": "YYYY-MM-DD HH:mm:ss",
          "decimals": 2,
          "mappingType": 1,
          "pattern": "",
          "thresholds": [],
          "type": "number",
          "unit": "short"
        }
      ],
      "targets": [
        {
          "format": "table",
          "group": [],
          "metricColumn": "none",
          "rawQuery": true,
          "rawSql": "SELECT CONCAT(nombre, ' ', apellidos) AS Nombre, puntuacion_total FROM ensayos WHERE equipo = 'Masculino';",
          "refId": "A",
          "select": [
            [
              {
                "params": [
                  "reserva"
                ],
                "type": "column"
              }
            ]
          ],
          "table": "minutos",
          "timeColumn": "total",
          "timeColumnType": "int",
          "where": [
            {
              "name": "$__unixEpochFilter",
              "params": [],
              "type": "macro"
            }
          ]
        }
      ],
      "timeFrom": null,
      "timeShift": null,
      "title": "Puntos totales masculino",
      "transform": "table",
      "type": "table"
    },
    {
      "cacheTimeout": null,
      "columns": [],
      "datasource": "MySQL",
      "fontSize": "100%",
      "gridPos": {
        "h": 23,
        "w": 5,
        "x": 13,
        "y": 0
      },
      "id": 6,
      "interval": "",
      "links": [],
      "options": {},
      "pageSize": null,
      "pluginVersion": "6.4.3",
      "showHeader": true,
      "sort": {
        "col": 1,
        "desc": true
      },
      "styles": [
        {
          "alias": "Time",
          "dateFormat": "YYYY-MM-DD HH:mm:ss",
          "pattern": "Time",
          "type": "date"
        },
        {
          "alias": "",
          "colorMode": null,
          "colors": [
            "rgba(245, 54, 54, 0.9)",
            "rgba(237, 129, 40, 0.89)",
            "rgba(50, 172, 45, 0.97)"
          ],
          "decimals": 2,
          "pattern": "/.*/",
          "thresholds": [],
          "type": "number",
          "unit": "short"
        }
      ],
      "targets": [
        {
          "format": "table",
          "group": [],
          "metricColumn": "none",
          "rawQuery": true,
          "rawSql": "SELECT CONCAT(nombre, ' ', apellidos) as nombre, total FROM minutos WHERE equipo = 'Femenino';",
          "refId": "A",
          "select": [
            [
              {
                "params": [
                  "reserva"
                ],
                "type": "column"
              }
            ]
          ],
          "table": "minutos",
          "timeColumn": "total",
          "timeColumnType": "int",
          "where": [
            {
              "name": "$__unixEpochFilter",
              "params": [],
              "type": "macro"
            }
          ]
        }
      ],
      "timeFrom": null,
      "timeShift": null,
      "title": "Minutos jugados Femenino",
      "transform": "table",
      "type": "table"
    },
    {
      "cacheTimeout": null,
      "columns": [],
      "datasource": "MySQL",
      "fontSize": "100%",
      "gridPos": {
        "h": 23,
        "w": 6,
        "x": 18,
        "y": 0
      },
      "id": 7,
      "interval": "",
      "links": [],
      "options": {},
      "pageSize": null,
      "pluginVersion": "6.4.3",
      "showHeader": true,
      "sort": {
        "col": 1,
        "desc": true
      },
      "styles": [
        {
          "alias": "Time",
          "dateFormat": "YYYY-MM-DD HH:mm:ss",
          "link": false,
          "pattern": "Time",
          "type": "date"
        },
        {
          "alias": "",
          "colorMode": null,
          "colors": [
            "rgba(245, 54, 54, 0.9)",
            "rgba(237, 129, 40, 0.89)",
            "rgba(50, 172, 45, 0.97)"
          ],
          "dateFormat": "YYYY-MM-DD HH:mm:ss",
          "decimals": 2,
          "mappingType": 1,
          "pattern": "",
          "thresholds": [],
          "type": "number",
          "unit": "short"
        }
      ],
      "targets": [
        {
          "format": "table",
          "group": [],
          "metricColumn": "none",
          "rawQuery": true,
          "rawSql": "SELECT CONCAT(nombre, ' ', apellidos) AS Nombre, puntuacion_total FROM ensayos WHERE equipo = 'Femenino';",
          "refId": "A",
          "select": [
            [
              {
                "params": [
                  "reserva"
                ],
                "type": "column"
              }
            ]
          ],
          "table": "minutos",
          "timeColumn": "total",
          "timeColumnType": "int",
          "where": [
            {
              "name": "$__unixEpochFilter",
              "params": [],
              "type": "macro"
            }
          ]
        }
      ],
      "timeFrom": null,
      "timeShift": null,
      "title": "Puntos totales femenino",
      "transform": "table",
      "type": "table"
    }
  ],
  "schemaVersion": 20,
  "style": "dark",
  "tags": [],
  "templating": {
    "list": []
  },
  "time": {
    "from": "now-6h",
    "to": "now"
  },
  "timepicker": {
    "refresh_intervals": [
      "5s",
      "10s",
      "30s",
      "1m",
      "5m",
      "15m",
      "30m",
      "1h",
      "2h",
      "1d"
    ]
  },
  "timezone": "",
  "title": "Ensayos y minutos",
  "uid": "9UCLfvxWk",
  "version": 8
}
